…
### `left_join()`

``` r
left_join(gapminder, country_data)
```

    ## Joining, by = "country"

    ## Warning: Column `country` joining factors with different levels, coercing
    ## to character vector

    ## # A tibble: 1,704 x 8
    ##        country continent  year lifeExp      pop gdpPercap capital_city
    ##          <chr>    <fctr> <int>   <dbl>    <int>     <dbl>       <fctr>
    ##  1 Afghanistan      Asia  1952  28.801  8425333  779.4453         <NA>
    ##  2 Afghanistan      Asia  1957  30.332  9240934  820.8530         <NA>
    ##  3 Afghanistan      Asia  1962  31.997 10267083  853.1007         <NA>
    ##  4 Afghanistan      Asia  1967  34.020 11537966  836.1971         <NA>
    ##  5 Afghanistan      Asia  1972  36.088 13079460  739.9811         <NA>
    ##  6 Afghanistan      Asia  1977  38.438 14880372  786.1134         <NA>
    ##  7 Afghanistan      Asia  1982  39.854 12881816  978.0114         <NA>
    ##  8 Afghanistan      Asia  1987  40.822 13867957  852.3959         <NA>
    ##  9 Afghanistan      Asia  1992  41.674 16317921  649.3414         <NA>
    ## 10 Afghanistan      Asia  1997  41.763 22227415  635.3414         <NA>
    ## # ... with 1,694 more rows, and 1 more variables: language_spoken <fctr>
…
Returns all rows from `country_data`, and all columns from `country_data` and `gapminder`. Only countries that appear in `country_data` are included. Mutating join.

### `inner_join()`

``` r
inner_join(gapminder, country_data)
```

    ## Joining, by = "country"

    ## Warning: Column `country` joining factors with different levels, coercing
    ## to character vector

    ## # A tibble: 144 x 8
    ##      country continent  year lifeExp      pop gdpPercap capital_city
    ##        <chr>    <fctr> <int>   <dbl>    <int>     <dbl>       <fctr>
    ##  1 Argentina  Americas  1952  62.485 17876956  5911.315 Buenos Aires
    ##  2 Argentina  Americas  1957  64.399 19610538  6856.856 Buenos Aires
    ##  3 Argentina  Americas  1962  65.142 21283783  7133.166 Buenos Aires
    ##  4 Argentina  Americas  1967  65.634 22934225  8052.953 Buenos Aires
    ##  5 Argentina  Americas  1972  67.065 24779799  9443.039 Buenos Aires
    ##  6 Argentina  Americas  1977  68.481 26983828 10079.027 Buenos Aires
    ##  7 Argentina  Americas  1982  69.942 29341374  8997.897 Buenos Aires
    ##  8 Argentina  Americas  1987  70.774 31620918  9139.671 Buenos Aires
    ##  9 Argentina  Americas  1992  71.868 33958947  9308.419 Buenos Aires
    ## 10 Argentina  Americas  1997  73.275 36203463 10967.282 Buenos Aires
    ## # ... with 134 more rows, and 1 more variables: language_spoken <fctr>
…
Returns all rows from `country_data` that appear in `gapminder`, and all columns from both data frames. Similar to `left_join(country_data, gapminder)` and `inner_join(gapminder, country_data)`. Mutating join.

### `full_join()`

``` r
full_join(gapminder, country_data)
```

    ## Joining, by = "country"

    ## Warning: Column `country` joining factors with different levels, coercing
    ## to character vector

    ## # A tibble: 1,704 x 8
    ##        country continent  year lifeExp      pop gdpPercap capital_city
    ##          <chr>    <fctr> <int>   <dbl>    <int>     <dbl>       <fctr>
    ##  1 Afghanistan      Asia  1952  28.801  8425333  779.4453         <NA>
    ##  2 Afghanistan      Asia  1957  30.332  9240934  820.8530         <NA>
    ##  3 Afghanistan      Asia  1962  31.997 10267083  853.1007         <NA>
    ##  4 Afghanistan      Asia  1967  34.020 11537966  836.1971         <NA>
    ##  5 Afghanistan      Asia  1972  36.088 13079460  739.9811         <NA>
    ##  6 Afghanistan      Asia  1977  38.438 14880372  786.1134         <NA>
    ##  7 Afghanistan      Asia  1982  39.854 12881816  978.0114         <NA>
    ##  8 Afghanistan      Asia  1987  40.822 13867957  852.3959         <NA>
    ##  9 Afghanistan      Asia  1992  41.674 16317921  649.3414         <NA>
    ## 10 Afghanistan      Asia  1997  41.763 22227415  635.3414         <NA>
    ## # ... with 1,694 more rows, and 1 more variables: language_spoken <fctr>
…
Similar result as `full_join(gapminder, country_data)`. Countries that appear in `country_data` are displayed first, followed by the rest of the `gapminder` data. Mutating join.

### `anti_join()`

``` r
anti_join(gapminder, country_data)
```

    ## Joining, by = "country"

    ## Warning: Column `country` joining factors with different levels, coercing
    ## to character vector

    ## # A tibble: 1,560 x 6
    ##        country continent  year lifeExp      pop gdpPercap
    ##         <fctr>    <fctr> <int>   <dbl>    <int>     <dbl>
    ##  1 Afghanistan      Asia  1952  28.801  8425333  779.4453
    ##  2 Afghanistan      Asia  1957  30.332  9240934  820.8530
    ##  3 Afghanistan      Asia  1962  31.997 10267083  853.1007
    ##  4 Afghanistan      Asia  1967  34.020 11537966  836.1971
    ##  5 Afghanistan      Asia  1972  36.088 13079460  739.9811
    ##  6 Afghanistan      Asia  1977  38.438 14880372  786.1134
    ##  7 Afghanistan      Asia  1982  39.854 12881816  978.0114
    ##  8 Afghanistan      Asia  1987  40.822 13867957  852.3959
    ##  9 Afghanistan      Asia  1992  41.674 16317921  649.3414
    ## 10 Afghanistan      Asia  1997  41.763 22227415  635.3414
    ## # ... with 1,550 more rows
…
Returns all countries from `country_data` that are not in `gapminder`. Since all countries appear in 'gapminder', a blank data frame is returned. Filtering join.

### `semi_join()`

``` r
semi_join(gapminder, country_data)
```

    ## Joining, by = "country"

    ## Warning: Column `country` joining factors with different levels, coercing
    ## to character vector

    ## # A tibble: 144 x 6
    ##      country continent  year lifeExp      pop gdpPercap
    ##       <fctr>    <fctr> <int>   <dbl>    <int>     <dbl>
    ##  1 Argentina  Americas  1952  62.485 17876956  5911.315
    ##  2 Argentina  Americas  1957  64.399 19610538  6856.856
    ##  3 Argentina  Americas  1962  65.142 21283783  7133.166
    ##  4 Argentina  Americas  1967  65.634 22934225  8052.953
    ##  5 Argentina  Americas  1972  67.065 24779799  9443.039
    ##  6 Argentina  Americas  1977  68.481 26983828 10079.027
    ##  7 Argentina  Americas  1982  69.942 29341374  8997.897
    ##  8 Argentina  Americas  1987  70.774 31620918  9139.671
    ##  9 Argentina  Americas  1992  71.868 33958947  9308.419
    ## 10 Argentina  Americas  1997  73.275 36203463 10967.282
    ## # ... with 134 more rows
…
