…
Experiment with one or more of `write_csv()/read_csv()` (and/or TSV friends), `saveRDS()/readRDS()`, `dput()/dget()`. Create something new, probably by filtering or grouped-summarization of Gapminder. Fiddle with the factor levels, i.e. make them non-alphabetical (see previous section). Explore whether this survives the round trip of writing to file then reading back in.

``` r
## country level summary of maximum population 
gap_max_pop <- gapminder %>%
  filter(year == 2002) %>% 
  group_by(country, continent) %>% 
  summarise(max_pop = max(pop)) %>% 
  ungroup()
gap_max_pop
```

    ## # A tibble: 142 x 3
    ##        country continent   max_pop
    ##         <fctr>    <fctr>     <dbl>
    ##  1 Afghanistan      Asia  25268405
    ##  2     Albania    Europe   3508512
    ##  3     Algeria    Africa  31287142
    ##  4      Angola    Africa  10866106
    ##  5   Argentina  Americas  38331121
    ##  6   Australia   Oceania  19546792
    ##  7     Austria    Europe   8148312
    ##  8     Bahrain      Asia    656397
    ##  9  Bangladesh      Asia 135656790
    ## 10     Belgium    Europe  10311970
    ## # ... with 132 more rows
…
